 TITLE = "Time=    6.5000 IMAX= 000000100 "
  VARIABLES = "x" "rho" "u" "v" "w" "p" "Bx" "By" "Bz" "psi" "lapse" "Shift^1" "Shift^2" "Shift^3" "Gamma_11" "Gamma_12" "Gamma_13" "Gamma_22" "Gamma_23" "Gamma_33"
   1.54500000000000       0.449590642985310      -0.115093004677979       0.000000000000000E+000  0.000000000000000E+000  7.061469648240552E-002  0.000000000000000E+000  0.000000000000000E+000  0.000000000000000E+000  0.000000000000000E+000  0.660170512657747       0.564528631584259       0.000000000000000E+000  0.000000000000000E+000   2.29449838187702       0.000000000000000E+000  0.000000000000000E+000   2.38966386806685       0.000000000000000E+000   2.38966386806685     
   1.63500000000000       0.404833918337900      -0.104396065519387       0.000000000000000E+000  0.000000000000000E+000  6.438590894884227E-002  0.000000000000000E+000  0.000000000000000E+000  0.000000000000000E+000  0.000000000000000E+000  0.670666588274111       0.550967892871999       0.000000000000000E+000  0.000000000000000E+000   2.22324159021407       0.000000000000000E+000  0.000000000000000E+000   2.67625386937545       0.000000000000000E+000   2.67625386937545     
   1.72500000000000       0.368736486222442      -9.650035277987014E-002  0.000000000000000E+000  0.000000000000000E+000  5.819203724103657E-002  0.000000000000000E+000  0.000000000000000E+000  0.000000000000000E+000  0.000000000000000E+000  0.680505142024767       0.537901343390923       0.000000000000000E+000  0.000000000000000E+000   2.15942028985507       0.000000000000000E+000  0.000000000000000E+000   2.97737942012424       0.000000000000000E+000   2.97737942012424     
   1.81500000000000       0.337103136741105      -9.238400536672049E-002  0.000000000000000E+000  0.000000000000000E+000  5.257589821325134E-002  0.000000000000000E+000  0.000000000000000E+000  0.000000000000000E+000  0.000000000000000E+000  0.689748942872674       0.525336423080662       0.000000000000000E+000  0.000000000000000E+000   2.10192837465565       0.000000000000000E+000  0.000000000000000E+000   3.29360275764973       0.000000000000000E+000   3.29360275764973     
   1.90500000000000       0.308910798197448      -8.942483290279017E-002  0.000000000000000E+000  0.000000000000000E+000  4.792585332665790E-002  0.000000000000000E+000  0.000000000000000E+000  0.000000000000000E+000  0.000000000000000E+000  0.698452652335445       0.513272405543404       0.000000000000000E+000  0.000000000000000E+000   2.04986876640420       0.000000000000000E+000  0.000000000000000E+000   3.62543832696848       0.000000000000000E+000   3.62543832696848     
   1.99500000000000       0.284619055972604      -8.667135121217652E-002  0.000000000000000E+000  0.000000000000000E+000  4.406106197874983E-002  0.000000000000000E+000  0.000000000000000E+000  0.000000000000000E+000  0.000000000000000E+000  0.706664147790317       0.501701152165701       0.000000000000000E+000  0.000000000000000E+000   2.00250626566416       0.000000000000000E+000  0.000000000000000E+000   3.97333935460278       0.000000000000000E+000   3.97333935460278     
   2.08500000000000       0.263660994217727      -8.417581863755699E-002  0.000000000000000E+000  0.000000000000000E+000  4.074905421264215E-002  0.000000000000000E+000  0.000000000000000E+000  0.000000000000000E+000  0.000000000000000E+000  0.714425585186215       0.490608631588274       0.000000000000000E+000  0.000000000000000E+000   1.95923261390887       0.000000000000000E+000  0.000000000000000E+000   4.33769430466209       0.000000000000000E+000   4.33769430466209     
   2.17500000000000       0.245381278672531      -8.212257686052417E-002  0.000000000000000E+000  0.000000000000000E+000  3.784256389155223E-002  0.000000000000000E+000  0.000000000000000E+000  0.000000000000000E+000  0.000000000000000E+000  0.721774260993238       0.479977015331877       0.000000000000000E+000  0.000000000000000E+000   1.91954022988506       0.000000000000000E+000  0.000000000000000E+000   4.71880889916657       0.000000000000000E+000   4.71880889916657     
   2.26500000000000       0.229506434985488      -8.054933563775071E-002  0.000000000000000E+000  0.000000000000000E+000  3.526101056654852E-002  0.000000000000000E+000  0.000000000000000E+000  0.000000000000000E+000  0.000000000000000E+000  0.728743317621318       0.469785982409972       0.000000000000000E+000  0.000000000000000E+000   1.88300220750552       0.000000000000000E+000  0.000000000000000E+000   5.11689346020300       0.000000000000000E+000   5.11689346020300     
   2.35500000000000       0.215766981151839      -7.934728512014749E-002  0.000000000000000E+000  0.000000000000000E+000  3.296404768428453E-002  0.000000000000000E+000  0.000000000000000E+000  0.000000000000000E+000  0.000000000000000E+000  0.735362325464783       0.460013954721243       0.000000000000000E+000  0.000000000000000E+000   1.84925690021231       0.000000000000000E+000  0.000000000000000E+000   5.53205045175198       0.000000000000000E+000   5.53205045175198     
   2.44500000000000       0.203957208395693      -7.835630005193768E-002  0.000000000000000E+000  0.000000000000000E+000  3.091545810907886E-002  0.000000000000000E+000  0.000000000000000E+000  0.000000000000000E+000  0.000000000000000E+000  0.741657766742605       0.450638988820551       0.000000000000000E+000  0.000000000000000E+000   1.81799591002045       0.000000000000000E+000  0.000000000000000E+000   5.96426976140417       0.000000000000000E+000   5.96426976140417     
   2.53500000000000       0.193943449697806      -7.742815339133984E-002  0.000000000000000E+000  0.000000000000000E+000  2.907635430454257E-002  0.000000000000000E+000  0.000000000000000E+000  0.000000000000000E+000  0.000000000000000E+000  0.747653440461674       0.441639411974917       0.000000000000000E+000  0.000000000000000E+000   1.78895463510848       0.000000000000000E+000  0.000000000000000E+000   6.41343198352338       0.000000000000000E+000   6.41343198352338     
   2.62500000000000       0.185686128632465      -7.642768023295846E-002  0.000000000000000E+000  0.000000000000000E+000  2.741582590026624E-002  0.000000000000000E+000  0.000000000000000E+000  0.000000000000000E+000  0.000000000000000E+000  0.753370803500884       0.432994239659092       0.000000000000000E+000  0.000000000000000E+000   1.76190476190476       0.000000000000000E+000  0.000000000000000E+000   6.87932708944336       0.000000000000000E+000   6.87932708944336     
   2.71500000000000       0.179200919548672      -7.539849445234401E-002  0.000000000000000E+000  0.000000000000000E+000  2.591321311885196E-002  0.000000000000000E+000  0.000000000000000E+000  0.000000000000000E+000  0.000000000000000E+000  0.758829259566982       0.424683482346110       0.000000000000000E+000  0.000000000000000E+000   1.73664825046041       0.000000000000000E+000  0.000000000000000E+000   7.36168859455114       0.000000000000000E+000   7.36168859455114     
   2.80500000000000       0.174480874256259      -7.441074820954069E-002  0.000000000000000E+000  0.000000000000000E+000  2.454953466153854E-002  0.000000000000000E+000  0.000000000000000E+000  0.000000000000000E+000  0.000000000000000E+000  0.764046405311420       0.416688376949185       0.000000000000000E+000  0.000000000000000E+000   1.71301247771836       0.000000000000000E+000  0.000000000000000E+000   7.86023553155400       0.000000000000000E+000   7.86023553155400     
   2.89500000000000       0.171463522225179      -7.345733564687588E-002  0.000000000000000E+000  0.000000000000000E+000  2.329973606826944E-002  0.000000000000000E+000  0.000000000000000E+000  0.000000000000000E+000  0.000000000000000E+000  0.769038241012056       0.408991429369745       0.000000000000000E+000  0.000000000000000E+000   1.69084628670121       0.000000000000000E+000  0.000000000000000E+000   8.37472033650341       0.000000000000000E+000   8.37472033650341     
   2.98500000000000       0.169996674104138      -7.256708691297735E-002  0.000000000000000E+000  0.000000000000000E+000  2.214111218218738E-002  0.000000000000000E+000  0.000000000000000E+000  0.000000000000000E+000  0.000000000000000E+000  0.773819351765968       0.401576308916547       0.000000000000000E+000  0.000000000000000E+000   1.67001675041876       0.000000000000000E+000  0.000000000000000E+000   8.90497222687254       0.000000000000000E+000   8.90497222687253     
   3.07500000000000       0.169824288861175      -7.164855821367375E-002  0.000000000000000E+000  0.000000000000000E+000  2.106440041066950E-002  0.000000000000000E+000  0.000000000000000E+000  0.000000000000000E+000  0.000000000000000E+000  0.778403064003002       0.394427639097295       0.000000000000000E+000  0.000000000000000E+000   1.65040650406504       0.000000000000000E+000  0.000000000000000E+000   9.45092589941968       0.000000000000000E+000   9.45092589941968     
   3.16500000000000       0.170404092517193      -7.027464087963790E-002  0.000000000000000E+000  0.000000000000000E+000  2.007072256064927E-002  0.000000000000000E+000  0.000000000000000E+000  0.000000000000000E+000  0.000000000000000E+000  0.782801581236058       0.387530820924055       0.000000000000000E+000  0.000000000000000E+000   1.63191153238547       0.000000000000000E+000  0.000000000000000E+000   10.0126291351198       0.000000000000000E+000   10.0126291351197     
   3.25500000000000       0.170297975650101      -6.853851846192625E-002  0.000000000000000E+000  0.000000000000000E+000  1.917057026883666E-002  0.000000000000000E+000  0.000000000000000E+000  0.000000000000000E+000  0.000000000000000E+000  0.787026102256292       0.380872182612209       0.000000000000000E+000  0.000000000000000E+000   1.61443932411674       0.000000000000000E+000  0.000000000000000E+000   10.5902321823977       0.000000000000000E+000   10.5902321823977     
   3.34500000000000       0.168973233910519      -6.664918437526411E-002  0.000000000000000E+000  0.000000000000000E+000  1.835838338908059E-002  0.000000000000000E+000  0.000000000000000E+000  0.000000000000000E+000  0.000000000000000E+000  0.791086924416756       0.374439398333094       0.000000000000000E+000  0.000000000000000E+000   1.59790732436472       0.000000000000000E+000  0.000000000000000E+000   11.1839246784643       0.000000000000000E+000   11.1839246784643     
   3.43500000000000       0.166764085475292      -6.459008686520135E-002  0.000000000000000E+000  0.000000000000000E+000  1.761699464640432E-002  0.000000000000000E+000  0.000000000000000E+000  0.000000000000000E+000  0.000000000000000E+000  0.794993534194602       0.368221145856603       0.000000000000000E+000  0.000000000000000E+000   1.58224163027656       0.000000000000000E+000  0.000000000000000E+000   11.7938860181278       0.000000000000000E+000   11.7938860181278     
   3.52500000000000       0.164059374971241      -6.202222144957684E-002  0.000000000000000E+000  0.000000000000000E+000  1.693079385438934E-002  0.000000000000000E+000  0.000000000000000E+000  0.000000000000000E+000  0.000000000000000E+000  0.798754686855580       0.362206942077244       0.000000000000000E+000  0.000000000000000E+000   1.56737588652482       0.000000000000000E+000  0.000000000000000E+000   12.4202304066617       0.000000000000000E+000   12.4202304066617     
   3.61500000000000       0.161187425894164      -5.879974278104166E-002  0.000000000000000E+000  0.000000000000000E+000  1.630772499400967E-002  0.000000000000000E+000  0.000000000000000E+000  0.000000000000000E+000  0.000000000000000E+000  0.802378476746835       0.356386960788880       0.000000000000000E+000  0.000000000000000E+000   1.55325034578147       0.000000000000000E+000  0.000000000000000E+000   13.0629860481156       0.000000000000000E+000   13.0629860481156     
   3.70500000000000       0.158320585414265      -5.498251721305816E-002  0.000000000000000E+000  0.000000000000000E+000  1.576140299311351E-002  0.000000000000000E+000  0.000000000000000E+000  0.000000000000000E+000  0.000000000000000E+000  0.805872399500659       0.350752053931841       0.000000000000000E+000  0.000000000000000E+000   1.53981106612686       0.000000000000000E+000  0.000000000000000E+000   13.7220975177998       0.000000000000000E+000   13.7220975177998     
   3.79500000000000       0.155537890262170      -5.052892573776407E-002  0.000000000000000E+000  0.000000000000000E+000  1.529738668560801E-002  0.000000000000000E+000  0.000000000000000E+000  0.000000000000000E+000  0.000000000000000E+000  0.809243407231967       0.345293640233748       0.000000000000000E+000  0.000000000000000E+000   1.52700922266140       0.000000000000000E+000  0.000000000000000E+000   14.3974570780956       0.000000000000000E+000   14.3974570780956     
   3.88500000000000       0.152855674130597      -4.531635235905471E-002  0.000000000000000E+000  0.000000000000000E+000  1.491128864684485E-002  0.000000000000000E+000  0.000000000000000E+000  0.000000000000000E+000  0.000000000000000E+000  0.812497957647260       0.340003565800933       0.000000000000000E+000  0.000000000000000E+000   1.51480051480051       0.000000000000000E+000  0.000000000000000E+000   15.0889565090313       0.000000000000000E+000   15.0889565090313     
   3.97500000000000       0.150178248942978      -4.019517134957169E-002  0.000000000000000E+000  0.000000000000000E+000  1.454388945470570E-002  0.000000000000000E+000  0.000000000000000E+000  0.000000000000000E+000  0.000000000000000E+000  0.815642057845963       0.334874048912751       0.000000000000000E+000  0.000000000000000E+000   1.50314465408805       0.000000000000000E+000  0.000000000000000E+000   15.7965350902496       0.000000000000000E+000   15.7965350902495     
   4.06500000000000       0.147268859748096      -3.622895201082089E-002  0.000000000000000E+000  0.000000000000000E+000  1.414307953767760E-002  0.000000000000000E+000  0.000000000000000E+000  0.000000000000000E+000  0.000000000000000E+000  0.818681303481040       0.329897714905428       0.000000000000000E+000  0.000000000000000E+000   1.49200492004920       0.000000000000000E+000  0.000000000000000E+000   16.5201954002013       0.000000000000000E+000   16.5201954002013     
   4.15500000000000       0.144031861795839      -3.358126071393814E-002  0.000000000000000E+000  0.000000000000000E+000  1.370336807095587E-002  0.000000000000000E+000  0.000000000000000E+000  0.000000000000000E+000  0.000000000000000E+000  0.821620913850396       0.325067543632865       0.000000000000000E+000  0.000000000000000E+000   1.48134777376655       0.000000000000000E+000  0.000000000000000E+000   17.2599876295937       0.000000000000000E+000   17.2599876295937     
   4.24500000000000       0.140519722609654      -3.206124899932301E-002  0.000000000000000E+000  0.000000000000000E+000  1.323651032846815E-002  0.000000000000000E+000  0.000000000000000E+000  0.000000000000000E+000  0.000000000000000E+000  0.824465763410482       0.320376816104682       0.000000000000000E+000  0.000000000000000E+000   1.47114252061249       0.000000000000000E+000  0.000000000000000E+000   18.0159783020436       0.000000000000000E+000   18.0159783020436     
   4.33500000000000       0.136832484549166      -3.137789402941447E-002  0.000000000000000E+000  0.000000000000000E+000  1.275797898170237E-002  0.000000000000000E+000  0.000000000000000E+000  0.000000000000000E+000  0.000000000000000E+000  0.827220410135981       0.315819178769129       0.000000000000000E+000  0.000000000000000E+000   1.46136101499423       0.000000000000000E+000  0.000000000000000E+000   18.7882173884589       0.000000000000000E+000   18.7882173884589     
   4.42500000000000       0.133064456600741      -3.118052559363632E-002  0.000000000000000E+000  0.000000000000000E+000  1.228527741907703E-002  0.000000000000000E+000  0.000000000000000E+000  0.000000000000000E+000  0.000000000000000E+000  0.829889121092326       0.311388743323022       0.000000000000000E+000  0.000000000000000E+000   1.45197740112994       0.000000000000000E+000  0.000000000000000E+000   19.5767217447756       0.000000000000000E+000   19.5767217447756     
   4.51500000000000       0.129245918927218      -3.160851245289700E-002  0.000000000000000E+000  0.000000000000000E+000  1.181600741250215E-002  0.000000000000000E+000  0.000000000000000E+000  0.000000000000000E+000  0.000000000000000E+000  0.832475895539250       0.307080180542392       0.000000000000000E+000  0.000000000000000E+000   1.44296788482835       0.000000000000000E+000  0.000000000000000E+000   20.3814815923861       0.000000000000000E+000   20.3814815923860     
   4.60500000000000       0.125305498427082      -3.309216105056380E-002  0.000000000000000E+000  0.000000000000000E+000  1.132807204495547E-002  0.000000000000000E+000  0.000000000000000E+000  0.000000000000000E+000  0.000000000000000E+000  0.834984485842267       0.302888748503100       0.000000000000000E+000  0.000000000000000E+000   1.43431053203040       0.000000000000000E+000  0.000000000000000E+000   21.2024742507363       0.000000000000000E+000   21.2024742507363     
   4.69500000000000       0.121204770769694      -3.604749557729452E-002  0.000000000000000E+000  0.000000000000000E+000  1.080666247844138E-002  0.000000000000000E+000  0.000000000000000E+000  0.000000000000000E+000  0.000000000000000E+000  0.837418416433640       0.298810157845152       0.000000000000000E+000  0.000000000000000E+000   1.42598509052183       0.000000000000000E+000  0.000000000000000E+000   22.0396850249216       0.000000000000000E+000   22.0396850249216     
   4.78500000000000       0.117020462819683      -4.067695256574594E-002  0.000000000000000E+000  0.000000000000000E+000  1.024876868942217E-002  0.000000000000000E+000  0.000000000000000E+000  0.000000000000000E+000  0.000000000000000E+000  0.839781001034117       0.294840401182579       0.000000000000000E+000  0.000000000000000E+000   1.41797283176594       0.000000000000000E+000  0.000000000000000E+000   22.8931095506948       0.000000000000000E+000   22.8931095506948     
   4.87500000000000       0.112698370069988      -4.563790270524806E-002  0.000000000000000E+000  0.000000000000000E+000  9.714431897705140E-003  0.000000000000000E+000  0.000000000000000E+000  0.000000000000000E+000  0.000000000000000E+000  0.842075358320685       0.290975524695977       0.000000000000000E+000  0.000000000000000E+000   1.41025641025641       0.000000000000000E+000  0.000000000000000E+000   23.7627420635355       0.000000000000000E+000   23.7627420635355     
   4.96500000000000       0.108718053833702      -4.941921803700641E-002  0.000000000000000E+000  0.000000000000000E+000  9.255606869509979E-003  0.000000000000000E+000  0.000000000000000E+000  0.000000000000000E+000  0.000000000000000E+000  0.844304426203159       0.287211493466113       0.000000000000000E+000  0.000000000000000E+000   1.40281973816717       0.000000000000000E+000  0.000000000000000E+000   24.6485769225869       0.000000000000000E+000   24.6485769225869     
   5.05500000000000       0.105220849372843      -5.192758676304927E-002  0.000000000000000E+000  0.000000000000000E+000  8.868159914495006E-003  0.000000000000000E+000  0.000000000000000E+000  0.000000000000000E+000  0.000000000000000E+000  0.846470974853009       0.283544308044408       0.000000000000000E+000  0.000000000000000E+000   1.39564787339268       0.000000000000000E+000  0.000000000000000E+000   25.5506086681042       0.000000000000000E+000   25.5506086681042     
   5.14500000000000       0.102311132125156      -5.338458195836478E-002  0.000000000000000E+000  0.000000000000000E+000  8.535783058957762E-003  0.000000000000000E+000  0.000000000000000E+000  0.000000000000000E+000  0.000000000000000E+000  0.848577618611025       0.279970112984222       0.000000000000000E+000  0.000000000000000E+000   1.38872691933916       0.000000000000000E+000  0.000000000000000E+000   26.4688179905188       0.000000000000000E+000   26.4688179905188     
   5.23500000000000       9.998107342855829E-002 -5.401836497157952E-002  0.000000000000000E+000  0.000000000000000E+000  8.245313790039338E-003  0.000000000000000E+000  0.000000000000000E+000  0.000000000000000E+000  0.000000000000000E+000  0.850626826885815       0.276485172735792       0.000000000000000E+000  0.000000000000000E+000   1.38204393505253       0.000000000000000E+000  0.000000000000000E+000   27.4031903717366       0.000000000000000E+000   27.4031903717366     
   5.32500000000000       9.796703639174874E-002 -5.412793924912229E-002  0.000000000000000E+000  0.000000000000000E+000  7.983706279262072E-003  0.000000000000000E+000  0.000000000000000E+000  0.000000000000000E+000  0.000000000000000E+000  0.852620934142415       0.273086017241723       0.000000000000000E+000  0.000000000000000E+000   1.37558685446009       0.000000000000000E+000  0.000000000000000E+000   28.3537201451609       0.000000000000000E+000   28.3537201451608     
   5.41500000000000       9.600589947485955E-002 -5.396238296246629E-002  0.000000000000000E+000  0.000000000000000E+000  7.746323193562527E-003  0.000000000000000E+000  0.000000000000000E+000  0.000000000000000E+000  0.000000000000000E+000  0.854562149069167       0.269769460849602       0.000000000000000E+000  0.000000000000000E+000   1.36934441366574       0.000000000000000E+000  0.000000000000000E+000   29.3204079023387       0.000000000000000E+000   29.3204079023387     
   5.50500000000000       9.408404134615130E-002 -5.357760309578013E-002  0.000000000000000E+000  0.000000000000000E+000  7.531049321827077E-003  0.000000000000000E+000  0.000000000000000E+000  0.000000000000000E+000  0.000000000000000E+000  0.856452563001333       0.266532535035900       0.000000000000000E+000  0.000000000000000E+000   1.36330608537693       0.000000000000000E+000  0.000000000000000E+000   30.3032533651769       0.000000000000000E+000   30.3032533651769     
   5.59500000000000       9.225387403436729E-002 -5.295365158361542E-002  0.000000000000000E+000  0.000000000000000E+000  7.332566258966777E-003  0.000000000000000E+000  0.000000000000000E+000  0.000000000000000E+000  0.000000000000000E+000  0.858294157671380       0.263372396757315       0.000000000000000E+000  0.000000000000000E+000   1.35746201966041       0.000000000000000E+000  0.000000000000000E+000   31.3022597142260       0.000000000000000E+000   31.3022597142260     
   5.68500000000000       9.055406016257278E-002 -5.208957948861214E-002  0.000000000000000E+000  0.000000000000000E+000  7.147487671068605E-003  0.000000000000000E+000  0.000000000000000E+000  0.000000000000000E+000  0.000000000000000E+000  0.860088812348394       0.260286326761665       0.000000000000000E+000  0.000000000000000E+000   1.35180299032542       0.000000000000000E+000  0.000000000000000E+000   32.3174337177439       0.000000000000000E+000   32.3174337177439     
   5.77500000000000       8.899827248056059E-002 -5.107189137620381E-002  0.000000000000000E+000  0.000000000000000E+000  6.975473691147022E-003  0.000000000000000E+000  0.000000000000000E+000  0.000000000000000E+000  0.000000000000000E+000  0.861838310422493       0.257271732631412       0.000000000000000E+000  0.000000000000000E+000   1.34632034632035       0.000000000000000E+000  0.000000000000000E+000   33.3487890588221       0.000000000000000E+000   33.3487890588221     
   5.86500000000000       8.752445343875567E-002 -5.000992763924775E-002  0.000000000000000E+000  0.000000000000000E+000  6.813015668237225E-003  0.000000000000000E+000  0.000000000000000E+000  0.000000000000000E+000  0.000000000000000E+000  0.863544345484311       0.254326167535025       0.000000000000000E+000  0.000000000000000E+000   1.34100596760443       0.000000000000000E+000  0.000000000000000E+000   34.3963433817764       0.000000000000000E+000   34.3963433817764     
   5.95500000000000       8.608127098678231E-002 -4.901147480173472E-002  0.000000000000000E+000  0.000000000000000E+000  6.655835609029825E-003  0.000000000000000E+000  0.000000000000000E+000  0.000000000000000E+000  0.000000000000000E+000  0.865208526944472       0.251447307301195       0.000000000000000E+000  0.000000000000000E+000   1.33585222502099       0.000000000000000E+000  0.000000000000000E+000   35.4601134791264       0.000000000000000E+000   35.4601134791264     
   6.04500000000000       8.466648482299884E-002 -4.809876608088551E-002  0.000000000000000E+000  0.000000000000000E+000  6.503113969264424E-003  0.000000000000000E+000  0.000000000000000E+000  0.000000000000000E+000  0.000000000000000E+000  0.866832385233441       0.248632927023301       0.000000000000000E+000  0.000000000000000E+000   1.33085194375517       0.000000000000000E+000  0.000000000000000E+000   36.5401112786168       0.000000000000000E+000   36.5401112786168     
   6.13500000000000       8.329001989947640E-002 -4.723777415523896E-002  0.000000000000000E+000  0.000000000000000E+000  6.355567530039098E-003  0.000000000000000E+000  0.000000000000000E+000  0.000000000000000E+000  0.000000000000000E+000  0.868417376618117       0.245880891417433       0.000000000000000E+000  0.000000000000000E+000   1.32599837000815       0.000000000000000E+000  0.000000000000000E+000   37.6363414059376       0.000000000000000E+000   37.6363414059376     
   6.22500000000000       8.195472844876228E-002 -4.641054321521605E-002  0.000000000000000E+000  0.000000000000000E+000  6.213372722359464E-003  0.000000000000000E+000  0.000000000000000E+000  0.000000000000000E+000  0.000000000000000E+000  0.869964887667931       0.243189153556179       0.000000000000000E+000  0.000000000000000E+000   1.32128514056225       0.000000000000000E+000  0.000000000000000E+000   38.7488002620622       0.000000000000000E+000   38.7488002620622     
   6.31500000000000       8.066058756200836E-002 -4.560822155689462E-002  0.000000000000000E+000  0.000000000000000E+000  6.076439864792230E-003  0.000000000000000E+000  0.000000000000000E+000  0.000000000000000E+000  0.000000000000000E+000  0.871476239400045       0.240555752647212       0.000000000000000E+000  0.000000000000000E+000   1.31670625494854       0.000000000000000E+000  0.000000000000000E+000   39.8774773834591       0.000000000000000E+000   39.8774773834591     
   6.40500000000000       7.940693988954237E-002 -4.482575281775424E-002  0.000000000000000E+000  0.000000000000000E+000  5.944635932731705E-003  0.000000000000000E+000  0.000000000000000E+000  0.000000000000000E+000  0.000000000000000E+000  0.872952691130404       0.237978810864465       0.000000000000000E+000  0.000000000000000E+000   1.31225604996097       0.000000000000000E+000  0.000000000000000E+000   41.0223588644054       0.000000000000000E+000   41.0223588644054     
   6.49500000000000       7.819316865843998E-002 -4.405862719170613E-002  0.000000000000000E+000  0.000000000000000E+000  5.817823857864093E-003  0.000000000000000E+000  0.000000000000000E+000  0.000000000000000E+000  0.000000000000000E+000  0.874395444054847       0.235456529706943       0.000000000000000E+000  0.000000000000000E+000   1.30792917628945       0.000000000000000E+000  0.000000000000000E+000   42.1834317761234       0.000000000000000E+000   42.1834317761234     
   6.58500000000000       7.701818076377226E-002 -4.330382447862095E-002  0.000000000000000E+000  0.000000000000000E+000  5.695809227784676E-003  0.000000000000000E+000  0.000000000000000E+000  0.000000000000000E+000  0.000000000000000E+000  0.875805644582244       0.232987186156015       0.000000000000000E+000  0.000000000000000E+000   1.30372057706910       0.000000000000000E+000  0.000000000000000E+000   43.3606880809473       0.000000000000000E+000   43.3606880809473     
   6.67500000000000       7.588035298383654E-002 -4.255953334454884E-002  0.000000000000000E+000  0.000000000000000E+000  5.578355770613056E-003  0.000000000000000E+000  0.000000000000000E+000  0.000000000000000E+000  0.000000000000000E+000  0.877184387439564       0.230569128935368       0.000000000000000E+000  0.000000000000000E+000   1.29962546816479       0.000000000000000E+000  0.000000000000000E+000   44.5541265651233       0.000000000000000E+000   44.5541265651233     
   6.76500000000000       7.477801661854977E-002 -4.182545775974119E-002  0.000000000000000E+000  0.000000000000000E+000  5.465234497782368E-003  0.000000000000000E+000  0.000000000000000E+000  0.000000000000000E+000  0.000000000000000E+000  0.878532718566985       0.228200774906810       0.000000000000000E+000  0.000000000000000E+000   1.29563932002956       0.000000000000000E+000  0.000000000000000E+000   45.7637520894463       0.000000000000000E+000   45.7637520894463     
   6.85500000000000       7.370944912018404E-002 -4.110205137904129E-002  0.000000000000000E+000  0.000000000000000E+000  5.356214427880268E-003  0.000000000000000E+000  0.000000000000000E+000  0.000000000000000E+000  0.000000000000000E+000  0.879851637819517       0.225880605683638       0.000000000000000E+000  0.000000000000000E+000   1.29175784099198       0.000000000000000E+000  0.000000000000000E+000   46.9895725516528       0.000000000000000E+000   46.9895725516528     
   6.94500000000000       7.267296010851655E-002 -4.039016285630367E-002  0.000000000000000E+000  0.000000000000000E+000  5.251069650580749E-003  0.000000000000000E+000  0.000000000000000E+000  0.000000000000000E+000  0.000000000000000E+000  0.881142101490132       0.223607164303925       0.000000000000000E+000  0.000000000000000E+000   1.28797696184305       0.000000000000000E+000  0.000000000000000E+000   48.2315950913545       0.000000000000000E+000   48.2315950913545     
   7.03500000000000       7.166696229015818E-002 -3.969034177073714E-002  0.000000000000000E+000  0.000000000000000E+000  5.149589348900855E-003  0.000000000000000E+000  0.000000000000000E+000  0.000000000000000E+000  0.000000000000000E+000  0.882405024668089       0.221379052118191       0.000000000000000E+000  0.000000000000000E+000   1.28429282160625       0.000000000000000E+000  0.000000000000000E+000   49.4898233081021       0.000000000000000E+000   49.4898233081021     
   7.12500000000000       7.069011672284865E-002 -3.900247724862365E-002  0.000000000000000E+000  0.000000000000000E+000  5.051593254073549E-003  0.000000000000000E+000  0.000000000000000E+000  0.000000000000000E+000  0.000000000000000E+000  0.883641283444939       0.219194925815277       0.000000000000000E+000  0.000000000000000E+000   1.28070175438596       0.000000000000000E+000  0.000000000000000E+000   50.7642566560474       0.000000000000000E+000   50.7642566560474     
   7.21500000000000       6.974130488822936E-002 -3.832607377330691E-002  0.000000000000000E+000  0.000000000000000E+000  4.956926672537454E-003  0.000000000000000E+000  0.000000000000000E+000  0.000000000000000E+000  0.000000000000000E+000  0.884851716979619       0.217053494606449       0.000000000000000E+000  0.000000000000000E+000   1.27720027720028       0.000000000000000E+000  0.000000000000000E+000   52.0548919181862       0.000000000000000E+000   52.0548919181862     
   7.30500000000000       6.881946139575330E-002 -3.766050475808436E-002  0.000000000000000E+000  0.000000000000000E+000  4.865442781299071E-003  0.000000000000000E+000  0.000000000000000E+000  0.000000000000000E+000  0.000000000000000E+000  0.886037129433081       0.214953517600011       0.000000000000000E+000  0.000000000000000E+000   1.27378507871321       0.000000000000000E+000  0.000000000000000E+000   53.3617255873379       0.000000000000000E+000   53.3617255873379     
   7.39500000000000       6.792354176873498E-002 -3.700524254433375E-002  0.000000000000000E+000  0.000000000000000E+000  4.776999812921567E-003  0.000000000000000E+000  0.000000000000000E+000  0.000000000000000E+000  0.000000000000000E+000  0.887198291782015       0.212893801479660       0.000000000000000E+000  0.000000000000000E+000   1.27045300878972       0.000000000000000E+000  0.000000000000000E+000   54.6847557273167       0.000000000000000E+000   54.6847557273167     
   7.48500000000000       6.705252752143391E-002 -3.635996008443566E-002  0.000000000000000E+000  0.000000000000000E+000  4.691461475694134E-003  0.000000000000000E+000  0.000000000000000E+000  0.000000000000000E+000  0.000000000000000E+000  0.888335943520436       0.210873198561369       0.000000000000000E+000  0.000000000000000E+000   1.26720106880428       0.000000000000000E+000  0.000000000000000E+000   56.0239824569800       0.000000000000000E+000   56.0239824569800     
   7.57500000000000       6.620541922147442E-002 -3.572449124918775E-002  0.000000000000000E+000  0.000000000000000E+000  4.608695947669514E-003  0.000000000000000E+000  0.000000000000000E+000  0.000000000000000E+000  0.000000000000000E+000  0.889450794257164       0.208890604971826       0.000000000000000E+000  0.000000000000000E+000   1.26402640264026       0.000000000000000E+000  0.000000000000000E+000   57.3794071745886       0.000000000000000E+000   57.3794071745886     
   7.66500000000000       6.538125304411775E-002 -3.509875349907917E-002  0.000000000000000E+000  0.000000000000000E+000  4.528577340741310E-003  0.000000000000000E+000  0.000000000000000E+000  0.000000000000000E+000  0.000000000000000E+000  0.890543525216609       0.206944958470657       0.000000000000000E+000  0.000000000000000E+000   1.26092628832355       0.000000000000000E+000  0.000000000000000E+000   58.7510313357101       0.000000000000000E+000   58.7510313357101     
   7.75500000000000       6.457911869743049E-002 -3.448265687360644E-002  0.000000000000000E+000  0.000000000000000E+000  4.450987314119120E-003  0.000000000000000E+000  0.000000000000000E+000  0.000000000000000E+000  0.000000000000000E+000  0.891614790649626       0.205035235659198       0.000000000000000E+000  0.000000000000000E+000   1.25789813023856       0.000000000000000E+000  0.000000000000000E+000   60.1388556289048       0.000000000000000E+000   60.1388556289048     
   7.84500000000000       6.379816734212657E-002 -3.387605092076180E-002  0.000000000000000E+000  0.000000000000000E+000  4.375815645638591E-003  0.000000000000000E+000  0.000000000000000E+000  0.000000000000000E+000  0.000000000000000E+000  0.892665219160710       0.203160449079572       0.000000000000000E+000  0.000000000000000E+000   1.25493945188018       0.000000000000000E+000  0.000000000000000E+000   61.5428799033745       0.000000000000000E+000   61.5428799033745     
   7.93500000000000       6.303760707686051E-002 -3.327872981367633E-002  0.000000000000000E+000  0.000000000000000E+000  4.302959579339178E-003  0.000000000000000E+000  0.000000000000000E+000  0.000000000000000E+000  0.000000000000000E+000  0.893695414957273       0.201319645479181       0.000000000000000E+000  0.000000000000000E+000   1.25204788909893       0.000000000000000E+000  0.000000000000000E+000   62.9631036286919       0.000000000000000E+000   62.9631036286919     
   8.02500000000000       6.229669062778538E-002 -3.269046976649070E-002  0.000000000000000E+000  0.000000000000000E+000  4.232322458413286E-003  0.000000000000000E+000  0.000000000000000E+000  0.000000000000000E+000  0.000000000000000E+000  0.894705959026320       0.199511906245450       0.000000000000000E+000  0.000000000000000E+000   1.24922118380062       0.000000000000000E+000  0.000000000000000E+000   64.3995264048738       0.000000000000000E+000   64.3995264048738     
   8.11500000000000       6.157470328552416E-002 -3.211106141840919E-002  0.000000000000000E+000  0.000000000000000E+000  4.163812430391657E-003  0.000000000000000E+000  0.000000000000000E+000  0.000000000000000E+000  0.000000000000000E+000  0.895697410243413       0.197736349211298       0.000000000000000E+000  0.000000000000000E+000   1.24645717806531       0.000000000000000E+000  0.000000000000000E+000   65.8521481776067       0.000000000000000E+000   65.8521481776067     
   8.20500000000000       6.087095625398331E-002 -3.154031767696128E-002  0.000000000000000E+000  0.000000000000000E+000  4.097341702847919E-003  0.000000000000000E+000  0.000000000000000E+000  0.000000000000000E+000  0.000000000000000E+000  0.896670306418442       0.195992128791278       0.000000000000000E+000  0.000000000000000E+000   1.24375380865326       0.000000000000000E+000  0.000000000000000E+000   67.3209691353013       0.000000000000000E+000   67.3209691353013     
   8.29500000000000       6.018478574337677E-002 -3.097806385452878E-002  0.000000000000000E+000  0.000000000000000E+000  4.032826359574187E-003  0.000000000000000E+000  0.000000000000000E+000  0.000000000000000E+000  0.000000000000000E+000  0.897625165282384       0.194278431159563       0.000000000000000E+000  0.000000000000000E+000   1.24110910186860       0.000000000000000E+000  0.000000000000000E+000   68.8059894888208       0.000000000000000E+000   68.8059894888208     
   8.38500000000000       5.951555527381080E-002 -3.042412886709978E-002  0.000000000000000E+000  0.000000000000000E+000  3.970186481710592E-003  0.000000000000000E+000  0.000000000000000E+000  0.000000000000000E+000  0.000000000000000E+000  0.898562485418913       0.192594464603522       0.000000000000000E+000  0.000000000000000E+000   1.23852116875373       0.000000000000000E+000  0.000000000000000E+000   70.3072093352942       0.000000000000000E+000   70.3072093352942     
   8.47500000000000       5.886265849231889E-002 -2.987834727113367E-002  0.000000000000000E+000  0.000000000000000E+000  3.909346314196046E-003  0.000000000000000E+000  0.000000000000000E+000  0.000000000000000E+000  0.000000000000000E+000  0.899482747144436       0.190939450759112       0.000000000000000E+000  0.000000000000000E+000   1.23598820058997       0.000000000000000E+000  0.000000000000000E+000   71.8246286640607       0.000000000000000E+000   71.8246286640607     
   8.56500000000000       5.822552087257681E-002 -2.934056468610323E-002  0.000000000000000E+000  0.000000000000000E+000  3.850234326751501E-003  0.000000000000000E+000  0.000000000000000E+000  0.000000000000000E+000  0.000000000000000E+000  0.900386413339863       0.189312625310561       0.000000000000000E+000  0.000000000000000E+000   1.23350846468184       0.000000000000000E+000  0.000000000000000E+000   73.3582474353917       0.000000000000000E+000   73.3582474353917     
   8.65500000000000       5.760359939841075E-002 -2.881063238912872E-002  0.000000000000000E+000  0.000000000000000E+000  3.792783090375292E-003  0.000000000000000E+000  0.000000000000000E+000  0.000000000000000E+000  0.000000000000000E+000  0.901273930237195       0.187713252304850       0.000000000000000E+000  0.000000000000000E+000   1.23108030040439       0.000000000000000E+000  0.000000000000000E+000   74.9080656404282       0.000000000000000E+000   74.9080656404282     
   8.74500000000000       5.699637959535024E-002 -2.828838839901121E-002  0.000000000000000E+000  0.000000000000000E+000  3.736928915378511E-003  0.000000000000000E+000  0.000000000000000E+000  0.000000000000000E+000  0.000000000000000E+000  0.902145728163756       0.186140645155947       0.000000000000000E+000  0.000000000000000E+000   1.22870211549457       0.000000000000000E+000  0.000000000000000E+000   76.4740833072268       0.000000000000000E+000   76.4740833072268     
   8.83500000000000       5.640337003053472E-002 -2.777364192270801E-002  0.000000000000000E+000  0.000000000000000E+000  3.682611266833149E-003  0.000000000000000E+000  0.000000000000000E+000  0.000000000000000E+000  0.000000000000000E+000  0.903002222246743       0.184594177372955       0.000000000000000E+000  0.000000000000000E+000   1.22637238256933       0.000000000000000E+000  0.000000000000000E+000   78.0563004754618       0.000000000000000E+000   78.0563004754618     
   8.92500000000000       5.582409605418170E-002 -2.726618563723316E-002  0.000000000000000E+000  0.000000000000000E+000  3.629772123011023E-003  0.000000000000000E+000  0.000000000000000E+000  0.000000000000000E+000  0.000000000000000E+000  0.903843813080521       0.183073267032212       0.000000000000000E+000  0.000000000000000E+000   1.22408963585434       0.000000000000000E+000  0.000000000000000E+000   79.6547171755741       0.000000000000000E+000   79.6547171755741     
   9.01500000000000       5.525809592988896E-002 -2.676584333335062E-002  0.000000000000000E+000  0.000000000000000E+000  3.578355561281338E-003  0.000000000000000E+000  0.000000000000000E+000  0.000000000000000E+000  0.000000000000000E+000  0.904670887358967       0.181577334633607       0.000000000000000E+000  0.000000000000000E+000   1.22185246810871       0.000000000000000E+000  0.000000000000000E+000   81.2693334272676       0.000000000000000E+000   81.2693334272676     
   9.10500000000000       5.470492181505851E-002 -2.627252639023079E-002  0.000000000000000E+000  0.000000000000000E+000  3.528307784208583E-003  0.000000000000000E+000  0.000000000000000E+000  0.000000000000000E+000  0.000000000000000E+000  0.905483818474983       0.180105755984361       0.000000000000000E+000  0.000000000000000E+000   1.21965952773202       0.000000000000000E+000  0.000000000000000E+000   82.9001492508491       0.000000000000000E+000   82.9001492508491     
   9.19500000000000       5.416414512804732E-002 -2.578624766855146E-002  0.000000000000000E+000  0.000000000000000E+000  3.479577528912580E-003  0.000000000000000E+000  0.000000000000000E+000  0.000000000000000E+000  0.000000000000000E+000  0.906282967089148       0.178657843844840       0.000000000000000E+000  0.000000000000000E+000   1.21750951604133       0.000000000000000E+000  0.000000000000000E+000   84.5471646817611       0.000000000000000E+000   84.5471646817611     
   9.28500000000000       5.363536146439903E-002 -2.530710562313901E-002  0.000000000000000E+000  0.000000000000000E+000  3.432116389027876E-003  0.000000000000000E+000  0.000000000000000E+000  0.000000000000000E+000  0.000000000000000E+000  0.907068681669363       0.177232881769634       0.000000000000000E+000  0.000000000000000E+000   1.21540118470652       0.000000000000000E+000  0.000000000000000E+000   86.2103797896222       0.000000000000000E+000   86.2103797896222     
   9.37500000000000       5.311818334686753E-002 -2.483503830617713E-002  0.000000000000000E+000  0.000000000000000E+000  3.385878154383614E-003  0.000000000000000E+000  0.000000000000000E+000  0.000000000000000E+000  0.000000000000000E+000  0.907841299003204       0.175830203281773       0.000000000000000E+000  0.000000000000000E+000   1.21333333333333       0.000000000000000E+000  0.000000000000000E+000   87.8897947139943       0.000000000000000E+000   87.8897947139943     
   9.46500000000000       5.261227431199778E-002 -2.436985572366525E-002  0.000000000000000E+000  0.000000000000000E+000  3.340821701639508E-003  0.000000000000000E+000  0.000000000000000E+000  0.000000000000000E+000  0.000000000000000E+000  0.908601144684570       0.174449277228000       0.000000000000000E+000  0.000000000000000E+000   1.21130480718436       0.000000000000000E+000  0.000000000000000E+000   89.5854097526046       0.000000000000000E+000   89.5854097526046     
   9.55500000000000       5.211731466171508E-002 -2.391113768473942E-002  0.000000000000000E+000  0.000000000000000E+000  3.296907826829230E-003  0.000000000000000E+000  0.000000000000000E+000  0.000000000000000E+000  0.000000000000000E+000  0.909348533576149       0.173089748001724       0.000000000000000E+000  0.000000000000000E+000   1.20931449502878       0.000000000000000E+000  0.000000000000000E+000   91.2972255311775       0.000000000000000E+000   91.2972255311775     
   9.64500000000000       5.163299441542570E-002 -2.345830778724051E-002  0.000000000000000E+000  0.000000000000000E+000  3.254098676262922E-003  0.000000000000000E+000  0.000000000000000E+000  0.000000000000000E+000  0.000000000000000E+000  0.910083770249069       0.171751397734221       0.000000000000000E+000  0.000000000000000E+000   1.20736132711249       0.000000000000000E+000  0.000000000000000E+000   93.0252433326816       0.000000000000000E+000   93.0252433326816     
   9.73500000000000       5.115901192516805E-002 -2.301085093582207E-002  0.000000000000000E+000  0.000000000000000E+000  3.212357718970578E-003  0.000000000000000E+000  0.000000000000000E+000  0.000000000000000E+000  0.000000000000000E+000  0.910807149401060       0.170434037556973       0.000000000000000E+000  0.000000000000000E+000   1.20544427324088       0.000000000000000E+000  0.000000000000000E+000   94.7694656860125       0.000000000000000E+000   94.7694656860125     
   9.82500000000000       5.069505907157595E-002 -2.256846241575131E-002  0.000000000000000E+000  0.000000000000000E+000  3.171648536900263E-003  0.000000000000000E+000  0.000000000000000E+000  0.000000000000000E+000  0.000000000000000E+000  0.911518956254336       0.169137373441689       0.000000000000000E+000  0.000000000000000E+000   1.20356234096692       0.000000000000000E+000  0.000000000000000E+000   96.5298973445570       0.000000000000000E+000   96.5298973445570     
   9.91500000000000       5.024082166719387E-002 -2.213113926089069E-002  0.000000000000000E+000  0.000000000000000E+000  3.131934934206584E-003  0.000000000000000E+000  0.000000000000000E+000  0.000000000000000E+000  0.000000000000000E+000  0.912219466934337       0.167860907009902       0.000000000000000E+000  0.000000000000000E+000   1.20171457387796       0.000000000000000E+000  0.000000000000000E+000   98.3065467969328       0.000000000000000E+000   98.3065467969328     
   10.0050000000000       4.979599060710989E-002 -2.169923645070039E-002  0.000000000000000E+000  0.000000000000000E+000  3.093181843958959E-003  0.000000000000000E+000  0.000000000000000E+000  0.000000000000000E+000  0.000000000000000E+000  0.912908948830410       0.166603915739886       0.000000000000000E+000  0.000000000000000E+000   1.19990004997501       0.000000000000000E+000  0.000000000000000E+000   100.099428392078       0.000000000000000E+000   100.099428392078     
   10.0950000000000       4.936023260222777E-002 -2.127362614263606E-002  0.000000000000000E+000  0.000000000000000E+000  3.055352548703011E-003  0.000000000000000E+000  0.000000000000000E+000  0.000000000000000E+000  0.000000000000000E+000  0.913587660939415       0.165365520580361       0.000000000000000E+000  0.000000000000000E+000   1.19811788013868       0.000000000000000E+000  0.000000000000000E+000   101.908564988715       0.000000000000000E+000   101.908564988715     
   10.1850000000000       4.893310736272689E-002 -2.085503260197059E-002  0.000000000000000E+000  0.000000000000000E+000  3.018401857158443E-003  0.000000000000000E+000  0.000000000000000E+000  0.000000000000000E+000  0.000000000000000E+000  0.914255854193206       0.164144812232804       0.000000000000000E+000  0.000000000000000E+000   1.19636720667648       0.000000000000000E+000  0.000000000000000E+000   103.733990729400       0.000000000000000E+000   103.733990729400     
   10.2750000000000       4.851425673234418E-002 -2.044406801695128E-002  0.000000000000000E+000  0.000000000000000E+000  2.982292549022981E-003  0.000000000000000E+000  0.000000000000000E+000  0.000000000000000E+000  0.000000000000000E+000  0.914913771770852       0.162940987565576       0.000000000000000E+000  0.000000000000000E+000   1.19464720194647       0.000000000000000E+000  0.000000000000000E+000   105.575753218712       0.000000000000000E+000   105.575753218712     
   10.3650000000000       4.810343728621472E-002 -2.004071303350839E-002  0.000000000000000E+000  0.000000000000000E+000  2.946997492535495E-003  0.000000000000000E+000  0.000000000000000E+000  0.000000000000000E+000  0.000000000000000E+000  0.915561649396441       0.161753450641923       0.000000000000000E+000  0.000000000000000E+000   1.19295706705258       0.000000000000000E+000  0.000000000000000E+000   107.433913973442       0.000000000000000E+000   107.433913973442     
   10.4550000000000       4.770054052015549E-002 -1.964413362817564E-002  0.000000000000000E+000  0.000000000000000E+000  2.912500651776617E-003  0.000000000000000E+000  0.000000000000000E+000  0.000000000000000E+000  0.000000000000000E+000  0.916199715623220       0.160581852284342       0.000000000000000E+000  0.000000000000000E+000   1.19129603060736       0.000000000000000E+000  0.000000000000000E+000   109.308546152850       0.000000000000000E+000   109.308546152850     
